<?xml version="1.0" standalone="no"?>
<!DOCTYPE svg PUBLIC "-//W3C//DTD SVG 1.1//EN" "http://www.w3.org/Graphics/SVG/1.1/DTD/svg11.dtd">
<svg xmlns="http://www.w3.org/2000/svg">
<metadata>Generated by Fontastic.me</metadata>
<defs>
<font id="icons" horiz-adv-x="512">
<font-face font-family="icons" units-per-em="512" ascent="480" descent="-32"/>
<missing-glyph horiz-adv-x="512" />

<glyph glyph-name="icon-1" unicode="&#97;" d="M345 114l-156 0c-6 0-10 4-10 10 0 5 4 9 10 9l156 0c5 0 10-4 10-9 0-6-5-10-10-10z m10 75c0 5-5 9-10 9l-185 0c-6 0-10-4-10-9 0-6 4-10 10-10l185 0c5 0 10 4 10 10z m0 65c0 5-5 9-10 9l-158 0c-5 0-9-4-9-9 0-6 4-10 9-10l158 0c5 0 10 4 10 10z m0 64c0 6-5 10-10 10l-180 0c-5 0-10-4-10-10 0-5 5-9 10-9l180 0c6 0 10 4 10 9z m93-293l0 462c0 14-11 25-25 25l-244 0c-3 0-5-1-7-3l-105-110c-2-2-3-4-3-6l0-368c0-14 11-25 25-25l334 0c14 0 25 11 25 25z m-269 354c5 0 10 4 10 9l0 105 234 0c3-1 6-3 6-6l0-462c0-3-3-5-6-6l-334 0c-3 1-6 3-6 6l0 354z m-10 99l0-80-77 0z"/>
<glyph glyph-name="icon-2" unicode="&#98;" d="M297 183c6 2 12-1 14-6 2-6 0-12-6-15-37-14-79-5-107 23-9 9-17 19-21 31l-15 0c-6 0-11 5-11 11 0 6 5 11 11 11l8 0c-2 8-2 16-2 24l-6 0c-4 0-8 2-10 6-2 3-2 7 0 11 2 3 6 6 10 5l10 0c8 27 27 50 52 62 26 13 55 14 81 4 6-2 9-9 7-14-3-6-9-9-15-7-29 11-62 4-83-18-8-7-14-16-18-27l101 0c6 0 11-5 11-11 0-6-5-11-11-11l-106 0c-1-8 0-16 2-24l98 0c6 0 11-5 11-11 0-6-5-11-11-11l-89 0c3-5 7-10 12-15 21-22 54-29 83-18m-41-160c129 0 233 104 233 233 0 129-105 234-233 234-129 0-234-105-234-234 1-129 105-233 234-233m181 413c86-86 99-222 31-323-68-101-198-140-311-93-112 47-176 167-152 287 24 119 129 205 251 205 68 0 133-27 181-75l0-1m-181-353c95 0 173 78 173 173 0 96-78 174-173 174-96 0-174-78-174-174 1-95 78-173 174-173m0 369c108 0 196-88 195-196 0-108-87-195-195-195-108 0-196 87-196 195 0 108 88 196 196 196"/>
<glyph glyph-name="icon-3" unicode="&#99;" d="M281 216l135 0 0-162-135 0z m175-189c0-7-5-13-13-13l-175 0c4 9 4 19 1 28 2-1 3-2 5-2l149 0c4 0 7 3 7 7l0 176c0 4-3 7-7 7l-149 0c-2 0-4 0-5-2-1-1-2-3-2-5l0-175c-5 9-12 16-22 20 3 11 2 22-4 32l0 123c0 56 23 108 64 145l19 18 49 0 20-18c40-37 63-90 63-145z m-400 2c0 15 12 28 27 28 4 0 7 3 7 7 0 1-1 2-1 3-2 4-3 8-3 12 0 15 13 28 28 28l13 0c3 0 5 1 6 3 12 15 19 32 22 51 20-10 34-28 40-49 0-3 3-5 6-5l4 0c15 0 28-13 28-28 0-3-1-6-2-9l-75 0c-3 0-7-3-7-7 0-4 4-7 7-7l79 0c9-1 17-8 20-16 4-9 3-18-2-26l-193 0c-3 5-4 10-4 15m168 411l-13 12c28 29 67 46 108 46l84 0c3 0 6-2 8-4 1-3 1-7 0-10-2-2-5-4-8-4l-84 0c-36 0-70-14-95-40m145-39l-40 0 0 65 40 0z m33-22l-19 17 0 70 20 0c12 0 23 10 23 23 0 13-11 23-23 23l-84 0c-48 0-93-20-124-56-2-3-2-7 1-10l24-21c1-1 3-2 5-2l0 0c2 1 4 1 5 3 21 24 52 39 85 40l0-70-20-17c-43-40-68-97-68-156l0-109c-6 4-13 6-20 7-9 27-31 49-59 58-2 1-5 0-7-2-2-2-2-5-1-7 3-10-3-28-17-49l-9 0c-23 0-42-19-42-42 0-3 1-6 1-9-14-4-25-14-29-28-5-14-2-29 7-40 2-1 4-2 6-2l386 0c15 0 27 12 27 27l0 196c0 59-25 116-68 156"/>
<glyph glyph-name="icon-4" unicode="&#100;" d="M321 372l-105 0c-7 0-13 5-13 12 0 7 6 13 13 13l105 0c7 0 13-6 13-13 0-7-6-12-13-12z m41-51c0 7-6 13-13 13l-133 0c-7 0-13-6-13-13 0-7 6-12 13-12l133 0c7 0 13 5 13 12z m-26-63c0 4-2 7-4 9-3 3-6 4-9 4l-107 0c-7 0-13-6-13-13 0-7 6-12 13-12l107 0c3 0 6 1 9 3 2 3 4 6 4 9z m21-63c0 7-5 13-12 13l-129 0c-7 0-13-6-13-13 0-7 6-12 13-12l129 0c7 0 12 5 12 12z m-25-191c1 0 2 1 3 1 2 1 4 2 5 3l102 107c2 2 4 5 4 8l0 357c0 15-12 28-28 28l-324 0c-16 0-28-13-28-28l0-448c0-15 12-28 28-28l237 0c0 0 1 0 1 0z m86 479c2-1 2-2 2-3l0-340-89 0c-7 0-13-6-13-13l0-98-224 0c-2 1-2 2-2 3l0 448c0 1 0 2 2 3z m-11-368l-64-67 0 67z m-261 256c8 0 14 6 14 14 0 8-6 14-14 14-8 0-14-6-14-14 0-8 6-14 14-14m0-60c8 0 14 7 14 14 0 8-6 14-14 14-8 0-14-6-14-14 0-7 6-14 14-14m0-65c8 0 14 6 14 14 0 7-6 14-14 14-8 0-14-7-14-14 0-8 6-14 14-14m0-66c8 0 14 6 14 14 0 8-6 14-14 14-8 0-14-6-14-14 0-8 6-14 14-14"/>
<glyph glyph-name="icon-5" unicode="&#101;" d="M301 1c-7 0-14 2-18 7-5 5-8 11-8 18-1 13-11 80-18 124-7-43-17-108-20-125-1-14-14-25-28-24-14 1-24 12-24 25 0 16 4 105 7 182-2 0-4 1-5 3l-51 90c-2 3-2 5 0 8l64 88c2 2 4 3 6 3l102 0c2 0 4-1 5-3l63-89c2-2 2-5 0-7l-51-90c-1-2-3-3-5-3 3-78 6-168 6-182 0-7-3-13-7-18-5-4-11-7-18-7z m-44 199c3 0 6-2 7-5 1-6 23-147 24-169 0-3 1-6 4-8 2-2 5-4 8-4l1 0c3 0 6 2 8 4 2 2 3 5 3 8 0 24-10 296-10 299 0 3 3 7 7 7 3 0 7-3 7-7 0-4 1-46 3-97l43 76-58 82-95 0-60-82 44-76c2 50 3 91 4 95 0 4 3 7 7 7 3-1 6-4 6-7 0-3-11-268-11-297 0-6 4-11 11-12 3 0 7 1 9 4 3 2 5 6 5 9 4 27 27 168 27 168 0 3 3 5 6 5z m-1 218c-26 0-47 21-47 47 0 25 21 46 47 46 25 0 46-21 46-46 0-26-21-47-46-47z m0 80c-19 0-34-15-34-33 0-19 15-33 34-33 18 0 33 14 33 33 0 18-15 33-33 33z"/>
<glyph glyph-name="icon-6" unicode="&#102;" d="M54 33c-14 0-27 6-37 16-20 20-20 52 0 73 10 9 23 15 37 15 13 0 26-6 36-15 20-21 20-53 0-73-10-10-23-16-36-16z m0 74c-6 0-12-3-16-7-8-8-8-22 0-30 9-8 22-9 31 0 8 8 8 22 0 30-4 4-10 7-15 7z m441-37l-336 0c-8 0-14 7-14 15 0 8 6 15 14 15l336 0c8 0 15-7 15-15 0-8-7-15-15-15z m-441 133c-14 0-27 5-37 15-20 20-20 53 0 73 10 10 23 15 37 15 13 0 26-5 36-15 20-20 20-53 0-73-10-10-23-15-36-15z m0 73c-6 0-12-2-16-6-6-6-8-16-4-24 3-8 11-13 20-13 8 0 16 5 20 13 3 8 1 18-5 24-4 4-10 6-15 6z m441-36l-336 0c-8 0-14 6-14 14 0 9 6 15 14 15l336 0c8 0 15-6 15-15 0-8-7-14-15-14z m-441 135c-14 0-27 6-37 15-20 21-20 53 0 73 10 10 23 16 37 16 13 0 26-6 36-16 20-20 20-52 0-73-10-9-23-15-36-15z m0 74c-6 0-12-3-16-7-8-8-8-22 0-30 9-9 22-9 31 0 8 8 8 22 0 30-4 4-10 7-15 7z m441-46l-336 0c-8 0-14 7-14 15 0 8 6 15 14 15l336 0c8 0 15-7 15-15 0-8-7-15-15-15z"/>
<glyph glyph-name="icon-7" unicode="&#103;" d="M483 246l-238-238c-3-3-7-5-11-5-5 0-11 4-13 9-2 6-1 12 3 16l228 228-228 228c-5 5-5 14 0 20 6 6 15 6 21 0l238-238c5-5 5-15 0-20z m-195 20l-238 238c-6 6-15 6-21 0-5-5-5-15 0-20l228-228-228-228c-4-4-5-10-3-16 2-5 8-9 14-9 3 0 7 2 10 5l238 238c6 5 6 15 0 20z"/>
<glyph glyph-name="icon-home" unicode="&#104;" d="M256 1c-138 0-250 112-250 250l0 10c0 138 112 250 250 250 138 0 250-112 250-250l0-10c0-138-112-250-250-250z m0 492c-128 0-232-104-232-232l0-10c0-128 104-232 232-232 128 0 232 104 232 232l0 10c0 128-104 232-232 232z m112-220l-107 96c-3 2-7 2-10 0l-107-96 10-11 18 16 0-103c0-2 1-4 3-6 1-1 3-2 5-2l152 0c4 0 8 3 8 8l0 103 18-16z m-44-90l-136 0 0 109 68 60 68-60z"/>
<glyph glyph-name="icon-ref" unicode="&#105;" d="M256 1c-138 0-250 112-250 250l0 10c0 138 112 250 250 250 138 0 250-112 250-250l0-10c0-138-112-250-250-250z m0 492c-128 0-232-104-232-232l0-10c0-128 104-232 232-232 128 0 232 104 232 232l0 10c0 128-104 232-232 232z m95-120l-178 0c-11 0-21-9-21-20l0-194c0-5 2-11 6-14 4-4 9-6 15-6l178 0c2 0 4 1 6 2 2 2 3 4 3 6l0 218c0 2-1 4-3 6-2 1-4 2-6 2z m-181-214l0 194c0 1 1 3 3 3l23 0 0-200-23 0c-1 0-2 1-2 1-1 1-1 1-1 2z m172-3l-128 0 0 200 128 0z m-29 160l-69 0c-5 0-9-4-9-9 0-5 4-8 9-8l69 0c5 0 9 3 9 8 0 5-4 9-9 9m0-38l-69 0c-5 0-9-4-9-9 0-5 4-9 9-9l69 0c5 0 9 4 9 9 0 5-4 9-9 9"/>
<glyph glyph-name="icon-flecha" unicode="&#106;" d="M385 266l-238 238c-5 5-15 5-20-1-6-5-6-15 0-20l227-227-227-227c-4-4-5-10-3-16 3-5 8-9 13-9l1 0c3 0 7 2 10 4l237 238c3 2 4 6 4 10 0 4-1 7-4 10z"/>
<glyph glyph-name="icon-flecha2" unicode="&#107;" d="M379 0c-4 0-8 2-11 5l-252 251 252 251c6 7 16 7 23 0 6-6 6-17 0-23l-228-228 228-228c5-5 6-12 3-18-2-6-8-10-15-10z"/>
<glyph glyph-name="icon-cerrar-popup0" unicode="&#108;" d="M256 0c-104 0-197 62-237 158-39 96-17 206 56 279 82 82 209 99 309 41 101-58 149-176 119-288-30-112-131-190-247-190z m-157 413c-75-75-87-192-28-281 59-88 172-122 270-82 98 41 154 145 133 249-21 104-112 179-218 179-59 0-116-23-157-65z m253-82l-23 24-74-74-74 74-24-24 74-74-74-74 24-23 74 73 74-73 23 23-74 74z"/>
</font></defs></svg>
